(module Display_WS2182B_8x8 (layer F.Cu) (tedit 61852A62)
  (fp_text reference REF** (at 73.152 104.14 180) (layer F.SilkS)
    (effects (font (size 1 1) (thickness 0.15)))
  )
  (fp_text value Display_WS2182B_8x8 (at 36.322 104.14 180) (layer F.Fab)
    (effects (font (size 1 1) (thickness 0.15)))
  )
  (fp_line (start 75.692 22.86) (end -4.318 22.86) (layer F.SilkS) (width 0.12))
  (fp_line (start -4.318 22.86) (end -4.318 102.87) (layer F.SilkS) (width 0.12))
  (fp_line (start -4.318 102.87) (end 75.692 102.87) (layer F.SilkS) (width 0.12))
  (fp_line (start 75.692 102.87) (end 75.692 22.86) (layer F.SilkS) (width 0.12))
  (pad 1 thru_hole rect (at 3.302 40.6) (size 3.048 1.524) (drill 0.762) (layers *.Cu *.Mask))
  (pad 2 thru_hole rect (at 3.302 43.14) (size 3.048 1.524) (drill 0.762) (layers *.Cu *.Mask))
  (pad 3 thru_hole rect (at 3.302 45.68) (size 3.048 1.524) (drill 0.762) (layers *.Cu *.Mask))
)
