EESchema Schematic File Version 5
EELAYER 36 0
EELAYER END
$Descr A4 11693 8268
encoding utf-8
Sheet 1 1
Title "CryptiClock"
Date "2022-01-10"
Rev "1.3"
Comp ""
Comment1 ""
Comment2 ""
Comment3 "Inspired by https://www.instructables.com/Cistercian-Digital-Clock/ ."
Comment4 "A \"cryptic'\" clock powered by an ESP8266 Weimos D1 mini board."
Comment5 ""
Comment6 ""
Comment7 ""
Comment8 ""
Comment9 ""
$EndDescr
Connection ~ 2250 1240
Connection ~ 2250 1660
Connection ~ 2440 1660
Connection ~ 2590 5675
Connection ~ 2640 1960
Connection ~ 2790 5675
Connection ~ 3800 3400
Connection ~ 4525 1605
Connection ~ 4700 4100
Connection ~ 4825 1505
Connection ~ 4825 2005
Connection ~ 4825 2105
Connection ~ 5450 3700
Connection ~ 5450 4100
Connection ~ 5625 1105
NoConn ~ 2290 6325
NoConn ~ 2290 6625
NoConn ~ 2290 6725
NoConn ~ 3090 6225
NoConn ~ 3090 6325
NoConn ~ 3090 6625
NoConn ~ 3090 6725
NoConn ~ 3090 7025
NoConn ~ 3090 7125
NoConn ~ 6225 1505
NoConn ~ 6225 1705
NoConn ~ 6225 1805
Wire Wire Line
	2060 1240 2250 1240
Wire Wire Line
	2060 1300 2060 1240
Wire Wire Line
	2060 1600 2060 1660
Wire Wire Line
	2060 1660 2250 1660
Wire Wire Line
	2240 5675 2590 5675
Wire Wire Line
	2250 1220 2250 1240
Wire Wire Line
	2250 1240 2440 1240
Wire Wire Line
	2250 1660 2250 1760
Wire Wire Line
	2250 1660 2440 1660
Wire Wire Line
	2250 1960 2250 2030
Wire Wire Line
	2440 1240 2440 1300
Wire Wire Line
	2440 1660 2440 1600
Wire Wire Line
	2440 1660 2640 1660
Wire Wire Line
	2590 5675 2590 5525
Wire Wire Line
	2590 5675 2590 5925
Wire Wire Line
	2640 1660 2640 1720
Wire Wire Line
	2640 1920 2640 1960
Wire Wire Line
	2640 1960 2640 1990
Wire Wire Line
	2640 2190 2640 2230
Wire Wire Line
	2690 7525 2690 7625
Wire Wire Line
	2790 5525 2790 5675
Wire Wire Line
	2790 5675 2790 5925
Wire Wire Line
	2790 5675 3140 5675
Wire Wire Line
	2810 1960 2640 1960
Wire Wire Line
	3090 6825 3440 6825
Wire Wire Line
	3090 6925 3190 6925
Wire Wire Line
	3440 6825 3440 7225
Wire Wire Line
	3700 3950 3800 3950
Wire Wire Line
	3700 4100 4700 4100
Wire Wire Line
	3700 4250 5850 4250
Wire Wire Line
	3800 3350 3800 3400
Wire Wire Line
	3800 3400 3800 3950
Wire Wire Line
	4050 3400 3800 3400
Wire Wire Line
	4050 3450 4050 3400
Wire Wire Line
	4335 1505 4825 1505
Wire Wire Line
	4525 1385 4525 1605
Wire Wire Line
	4525 1605 4335 1605
Wire Wire Line
	4700 3650 4700 3800
Wire Wire Line
	4700 4000 4700 4100
Wire Wire Line
	4700 4100 4900 4100
Wire Wire Line
	4825 1390 4825 1505
Wire Wire Line
	4825 1605 4525 1605
Wire Wire Line
	4825 1705 4825 1755
Wire Wire Line
	4825 1955 4825 2005
Wire Wire Line
	4825 2005 4825 2105
Wire Wire Line
	4825 2105 4825 2175
Wire Wire Line
	5100 3700 5100 3800
Wire Wire Line
	5300 4100 5450 4100
Wire Wire Line
	5425 1105 5625 1105
Wire Wire Line
	5450 3650 5450 3700
Wire Wire Line
	5450 3700 5100 3700
Wire Wire Line
	5450 3700 5450 3800
Wire Wire Line
	5450 4100 5450 4000
Wire Wire Line
	5450 4100 5550 4100
Wire Wire Line
	5450 5500 5500 5500
Wire Wire Line
	5450 5700 5500 5700
Wire Wire Line
	5500 5500 5500 5450
Wire Wire Line
	5500 5700 5500 5750
Wire Wire Line
	5525 2560 5525 2505
Wire Wire Line
	5625 1030 5625 1105
Wire Wire Line
	5625 1105 6670 1105
Wire Wire Line
	5750 4100 5850 4100
Wire Wire Line
	5850 4250 5850 4300
Wire Wire Line
	6195 6980 6195 7080
Wire Wire Line
	6195 7080 6495 7080
Wire Wire Line
	6195 7180 6495 7180
Wire Wire Line
	6195 7280 6195 7180
Wire Wire Line
	6225 2005 6760 2005
Wire Wire Line
	6225 2105 6330 2105
Wire Wire Line
	6330 2105 6330 2150
Wire Wire Line
	6330 2350 6330 2430
Wire Wire Line
	6495 7080 6495 6980
Wire Wire Line
	6495 7180 6495 7280
Wire Wire Line
	6670 1105 6670 1135
Wire Wire Line
	6670 1335 6670 1375
Wire Wire Line
	6760 2005 6760 2150
Wire Wire Line
	6760 2350 6760 2430
Wire Wire Line
	8350 4015 8465 4015
Wire Wire Line
	10085 4785 10175 4785
Wire Wire Line
	10175 4785 10175 4915
Wire Notes Line
	1750 3100 4350 3100
Wire Notes Line
	1750 5100 1750 3100
Wire Notes Line
	1770 970  1770 2400
Wire Notes Line
	1770 970  3190 970 
Wire Notes Line
	3190 970  3190 2400
Wire Notes Line
	3190 2400 1770 2400
Wire Notes Line
	3910 755  3910 2835
Wire Notes Line
	3910 755  7240 755 
Wire Notes Line
	4350 3100 4350 5100
Wire Notes Line
	4350 5100 1750 5100
Wire Notes Line
	4400 3300 6100 3300
Wire Notes Line
	4400 4650 4400 3300
Wire Notes Line
	4400 4650 6100 4650
Wire Notes Line
	4700 5100 5800 5100
Wire Notes Line
	4700 6100 4700 5100
Wire Notes Line
	5800 5100 5800 6100
Wire Notes Line
	5800 6100 4700 6100
Wire Notes Line
	6100 3300 6100 4650
Wire Notes Line
	7240 755  7240 2835
Wire Notes Line
	7240 2835 3910 2835
Text Notes 1750 5200 0    50   ~ 0
8x8 display
Text Notes 1780 2500 0    50   ~ 0
Light sensor
Text Notes 3905 2925 0    50   ~ 0
Accelerometer
Text Notes 4400 4750 0    50   ~ 0
3v3 to 5v level shifter
Text Notes 4700 6200 0    50   ~ 0
Aux 5v input
Text GLabel 2810 1960 2    50   Input ~ 0
LIGHT
Text GLabel 3190 6925 2    50   Input ~ 0
Din
Text GLabel 4335 1505 0    50   Input ~ 0
SDA
Text GLabel 4335 1605 0    50   Input ~ 0
SCL
Text GLabel 5850 4100 2    50   Input ~ 0
Din
Text GLabel 8465 4015 2    50   Input ~ 0
CONFIG
Text GLabel 10085 4785 0    50   Input ~ 0
CONFIG
$Comp
L power:+3V3 #PWR?
U 1 1 00000000
P 2250 1220
F 0 "#PWR?" H 2250 1070 50  0001 C CNN
F 1 "+3V3" H 2265 1393 50  0000 C CNN
F 2 "" H 2250 1220 50  0001 C CNN
F 3 "" H 2250 1220 50  0001 C CNN
	1    2250 1220
	-1   0    0    -1  
$EndComp
$Comp
L power:+5V #PWR0109
U 1 1 6182EFB4
P 2590 5525
F 0 "#PWR0109" H 2590 5375 50  0001 C CNN
F 1 "+5V" H 2605 5698 50  0000 C CNN
F 2 "" H 2590 5525 50  0001 C CNN
F 3 "" H 2590 5525 50  0001 C CNN
	1    2590 5525
	-1   0    0    -1  
$EndComp
$Comp
L power:+3V3 #PWR0108
U 1 1 6182E43C
P 2790 5525
F 0 "#PWR0108" H 2790 5375 50  0001 C CNN
F 1 "+3V3" H 2805 5698 50  0000 C CNN
F 2 "" H 2790 5525 50  0001 C CNN
F 3 "" H 2790 5525 50  0001 C CNN
	1    2790 5525
	-1   0    0    -1  
$EndComp
$Comp
L power:+5V #PWR0104
U 1 1 6181F201
P 3800 3350
F 0 "#PWR0104" H 3800 3200 50  0001 C CNN
F 1 "+5V" H 3815 3523 50  0000 C CNN
F 2 "" H 3800 3350 50  0001 C CNN
F 3 "" H 3800 3350 50  0001 C CNN
	1    3800 3350
	-1   0    0    -1  
$EndComp
$Comp
L power:+5V #PWR0116
U 1 1 61E332CA
P 4700 3650
F 0 "#PWR0116" H 4700 3500 50  0001 C CNN
F 1 "+5V" H 4715 3823 50  0000 C CNN
F 2 "" H 4700 3650 50  0001 C CNN
F 3 "" H 4700 3650 50  0001 C CNN
	1    4700 3650
	1    0    0    -1  
$EndComp
$Comp
L power:+3V3 #PWR0103
U 1 1 61E32616
P 5450 3650
F 0 "#PWR0103" H 5450 3500 50  0001 C CNN
F 1 "+3V3" H 5465 3823 50  0000 C CNN
F 2 "" H 5450 3650 50  0001 C CNN
F 3 "" H 5450 3650 50  0001 C CNN
	1    5450 3650
	1    0    0    -1  
$EndComp
$Comp
L power:+5V #PWR0110
U 1 1 61803177
P 5500 5450
F 0 "#PWR0110" H 5500 5300 50  0001 C CNN
F 1 "+5V" H 5515 5623 50  0000 C CNN
F 2 "" H 5500 5450 50  0001 C CNN
F 3 "" H 5500 5450 50  0001 C CNN
	1    5500 5450
	-1   0    0    -1  
$EndComp
$Comp
L power:+3V3 #PWR?
U 1 1 00000000
P 5625 1030
F 0 "#PWR?" H 5625 880 50  0001 C CNN
F 1 "+3V3" H 5640 1203 50  0000 C CNN
F 2 "" H 5625 1030 50  0001 C CNN
F 3 "" H 5625 1030 50  0001 C CNN
	1    5625 1030
	1    0    0    -1  
$EndComp
$Comp
L power:+5V #PWR0112
U 1 1 61833B30
P 6195 6980
F 0 "#PWR0112" H 6195 6830 50  0001 C CNN
F 1 "+5V" H 6210 7153 50  0000 C CNN
F 2 "" H 6195 6980 50  0001 C CNN
F 3 "" H 6195 6980 50  0001 C CNN
	1    6195 6980
	-1   0    0    -1  
$EndComp
$Comp
L power:PWR_FLAG #FLG0102
U 1 1 61848C14
P 6195 7280
F 0 "#FLG0102" H 6195 7355 50  0001 C CNN
F 1 "PWR_FLAG" H 6195 7453 50  0000 C CNN
F 2 "" H 6195 7280 50  0001 C CNN
F 3 "~" H 6195 7280 50  0001 C CNN
	1    6195 7280
	-1   0    0    1   
$EndComp
$Comp
L power:PWR_FLAG #FLG0101
U 1 1 61834A21
P 6495 6980
F 0 "#FLG0101" H 6495 7055 50  0001 C CNN
F 1 "PWR_FLAG" H 6495 7153 50  0000 C CNN
F 2 "" H 6495 6980 50  0001 C CNN
F 3 "~" H 6495 6980 50  0001 C CNN
	1    6495 6980
	1    0    0    -1  
$EndComp
$Comp
L power:GND #PWR0113
U 1 1 6193E01A
P 2240 5875
F 0 "#PWR0113" H 2240 5625 50  0001 C CNN
F 1 "GND" H 2245 5702 50  0000 C CNN
F 2 "" H 2240 5875 50  0001 C CNN
F 3 "" H 2240 5875 50  0001 C CNN
	1    2240 5875
	1    0    0    -1  
$EndComp
$Comp
L power:GND #PWR?
U 1 1 00000000
P 2250 2030
F 0 "#PWR?" H 2250 1780 50  0001 C CNN
F 1 "GND" H 2255 1857 50  0000 C CNN
F 2 "" H 2250 2030 50  0001 C CNN
F 3 "" H 2250 2030 50  0001 C CNN
	1    2250 2030
	1    0    0    -1  
$EndComp
$Comp
L power:GND #PWR?
U 1 1 00000000
P 2640 2230
F 0 "#PWR?" H 2640 1980 50  0001 C CNN
F 1 "GND" H 2770 2140 50  0000 C CNN
F 2 "" H 2640 2230 50  0001 C CNN
F 3 "" H 2640 2230 50  0001 C CNN
	1    2640 2230
	1    0    0    -1  
$EndComp
$Comp
L power:GND #PWR0105
U 1 1 6182A76B
P 2690 7625
F 0 "#PWR0105" H 2690 7375 50  0001 C CNN
F 1 "GND" H 2695 7452 50  0000 C CNN
F 2 "" H 2690 7625 50  0001 C CNN
F 3 "" H 2690 7625 50  0001 C CNN
	1    2690 7625
	1    0    0    -1  
$EndComp
$Comp
L power:GND #PWR0115
U 1 1 61940BF9
P 3140 5875
F 0 "#PWR0115" H 3140 5625 50  0001 C CNN
F 1 "GND" H 3145 5702 50  0000 C CNN
F 2 "" H 3140 5875 50  0001 C CNN
F 3 "" H 3140 5875 50  0001 C CNN
	1    3140 5875
	1    0    0    -1  
$EndComp
$Comp
L power:GND #PWR0114
U 1 1 61938033
P 4050 3650
F 0 "#PWR0114" H 4050 3400 50  0001 C CNN
F 1 "GND" H 4055 3477 50  0000 C CNN
F 2 "" H 4050 3650 50  0001 C CNN
F 3 "" H 4050 3650 50  0001 C CNN
	1    4050 3650
	1    0    0    -1  
$EndComp
$Comp
L power:GND #PWR?
U 1 1 00000000
P 4825 2175
F 0 "#PWR?" H 4825 1925 50  0001 C CNN
F 1 "GND" H 4830 2002 50  0000 C CNN
F 2 "" H 4825 2175 50  0001 C CNN
F 3 "" H 4825 2175 50  0001 C CNN
	1    4825 2175
	1    0    0    -1  
$EndComp
$Comp
L power:GND #PWR0102
U 1 1 61801C5F
P 5500 5750
F 0 "#PWR0102" H 5500 5500 50  0001 C CNN
F 1 "GND" H 5505 5577 50  0000 C CNN
F 2 "" H 5500 5750 50  0001 C CNN
F 3 "" H 5500 5750 50  0001 C CNN
	1    5500 5750
	1    0    0    -1  
$EndComp
$Comp
L power:GND #PWR?
U 1 1 00000000
P 5525 2560
F 0 "#PWR?" H 5525 2310 50  0001 C CNN
F 1 "GND" H 5530 2387 50  0000 C CNN
F 2 "" H 5525 2560 50  0001 C CNN
F 3 "" H 5525 2560 50  0001 C CNN
	1    5525 2560
	1    0    0    -1  
$EndComp
$Comp
L power:GND #PWR0117
U 1 1 61E4F96C
P 5850 4300
F 0 "#PWR0117" H 5850 4050 50  0001 C CNN
F 1 "GND" H 5855 4127 50  0000 C CNN
F 2 "" H 5850 4300 50  0001 C CNN
F 3 "" H 5850 4300 50  0001 C CNN
	1    5850 4300
	1    0    0    -1  
$EndComp
$Comp
L power:GND #PWR?
U 1 1 00000000
P 6330 2430
F 0 "#PWR?" H 6330 2180 50  0001 C CNN
F 1 "GND" H 6335 2257 50  0000 C CNN
F 2 "" H 6330 2430 50  0001 C CNN
F 3 "" H 6330 2430 50  0001 C CNN
	1    6330 2430
	1    0    0    -1  
$EndComp
$Comp
L power:GND #PWR0111
U 1 1 61832D72
P 6495 7280
F 0 "#PWR0111" H 6495 7030 50  0001 C CNN
F 1 "GND" H 6500 7107 50  0000 C CNN
F 2 "" H 6495 7280 50  0001 C CNN
F 3 "" H 6495 7280 50  0001 C CNN
	1    6495 7280
	1    0    0    -1  
$EndComp
$Comp
L power:GND #PWR?
U 1 1 00000000
P 6670 1375
F 0 "#PWR?" H 6670 1125 50  0001 C CNN
F 1 "GND" H 6675 1202 50  0000 C CNN
F 2 "" H 6670 1375 50  0001 C CNN
F 3 "" H 6670 1375 50  0001 C CNN
	1    6670 1375
	1    0    0    -1  
$EndComp
$Comp
L power:GND #PWR?
U 1 1 00000000
P 6760 2430
F 0 "#PWR?" H 6760 2180 50  0001 C CNN
F 1 "GND" H 6765 2257 50  0000 C CNN
F 2 "" H 6760 2430 50  0001 C CNN
F 3 "" H 6760 2430 50  0001 C CNN
	1    6760 2430
	1    0    0    -1  
$EndComp
$Comp
L power:GND #PWR0101
U 1 1 617FE91B
P 10175 5315
F 0 "#PWR0101" H 10175 5065 50  0001 C CNN
F 1 "GND" H 10180 5142 50  0000 C CNN
F 2 "" H 10175 5315 50  0001 C CNN
F 3 "" H 10175 5315 50  0001 C CNN
	1    10175 5315
	1    0    0    -1  
$EndComp
$Comp
L Device:R_Small R?
U 1 1 00000000
P 2250 1860
F 0 "R?" V 2150 1810 50  0000 L CNN
F 1 "10K" V 2350 1760 50  0000 L CNN
F 2 "Resistor_SMD:R_0805_2012Metric_Pad1.20x1.40mm_HandSolder" H 2250 1860 50  0001 C CNN
F 3 "~" H 2250 1860 50  0001 C CNN
	1    2250 1860
	-1   0    0    1   
$EndComp
$Comp
L Device:R_Small R?
U 1 1 00000000
P 2640 1820
F 0 "R?" V 2540 1770 50  0000 L CNN
F 1 "10K" V 2740 1720 50  0000 L CNN
F 2 "Resistor_SMD:R_0805_2012Metric_Pad1.20x1.40mm_HandSolder" H 2640 1820 50  0001 C CNN
F 3 "~" H 2640 1820 50  0001 C CNN
	1    2640 1820
	-1   0    0    1   
$EndComp
$Comp
L Device:R_Small R?
U 1 1 00000000
P 2640 2090
F 0 "R?" V 2540 2040 50  0000 L CNN
F 1 "10K" V 2740 1990 50  0000 L CNN
F 2 "Resistor_SMD:R_0805_2012Metric_Pad1.20x1.40mm_HandSolder" H 2640 2090 50  0001 C CNN
F 3 "~" H 2640 2090 50  0001 C CNN
	1    2640 2090
	-1   0    0    1   
$EndComp
$Comp
L Device:R_Small R?
U 1 1 00000000
P 4525 1285
F 0 "R?" V 4425 1235 50  0000 L CNN
F 1 "12K" V 4625 1215 50  0000 L CNN
F 2 "Resistor_SMD:R_0805_2012Metric_Pad1.20x1.40mm_HandSolder" H 4525 1285 50  0001 C CNN
F 3 "~" H 4525 1285 50  0001 C CNN
	1    4525 1285
	-1   0    0    1   
$EndComp
$Comp
L Device:R_Small R2
U 1 1 61E2EEDD
P 4700 3900
F 0 "R2" H 4800 3800 50  0000 L CNN
F 1 "10K" H 4750 3900 50  0000 L CNN
F 2 "Resistor_SMD:R_0805_2012Metric_Pad1.20x1.40mm_HandSolder" H 4700 3900 50  0001 C CNN
F 3 "~" H 4700 3900 50  0001 C CNN
	1    4700 3900
	-1   0    0    1   
$EndComp
$Comp
L Device:R_Small R?
U 1 1 00000000
P 4825 1290
F 0 "R?" V 4725 1240 50  0000 L CNN
F 1 "12K" V 4925 1220 50  0000 L CNN
F 2 "Resistor_SMD:R_0805_2012Metric_Pad1.20x1.40mm_HandSolder" H 4825 1290 50  0001 C CNN
F 3 "~" H 4825 1290 50  0001 C CNN
	1    4825 1290
	-1   0    0    1   
$EndComp
$Comp
L Device:R_Small R?
U 1 1 00000000
P 4825 1855
F 0 "R?" V 4725 1805 50  0000 L CNN
F 1 "4K7" V 4925 1785 50  0000 L CNN
F 2 "Resistor_SMD:R_0805_2012Metric_Pad1.20x1.40mm_HandSolder" H 4825 1855 50  0001 C CNN
F 3 "~" H 4825 1855 50  0001 C CNN
	1    4825 1855
	-1   0    0    1   
$EndComp
$Comp
L Device:R_Small R1
U 1 1 61E2A093
P 5450 3900
F 0 "R1" H 5300 3750 50  0000 L CNN
F 1 "10K" H 5250 3850 50  0000 L CNN
F 2 "Resistor_SMD:R_0805_2012Metric_Pad1.20x1.40mm_HandSolder" H 5450 3900 50  0001 C CNN
F 3 "~" H 5450 3900 50  0001 C CNN
	1    5450 3900
	-1   0    0    1   
$EndComp
$Comp
L Device:R_Small R3
U 1 1 61EE6333
P 5650 4100
F 0 "R3" V 5550 4050 50  0000 L CNN
F 1 "330" V 5750 4000 50  0000 L CNN
F 2 "Resistor_SMD:R_0805_2012Metric_Pad1.20x1.40mm_HandSolder" H 5650 4100 50  0001 C CNN
F 3 "~" H 5650 4100 50  0001 C CNN
	1    5650 4100
	0    -1   -1   0   
$EndComp
$Comp
L CryptiClock-rescue:CP1_Small-Device C1
U 1 1 619375C8
P 4050 3550
F 0 "C1" H 4141 3596 50  0000 L CNN
F 1 "100uF" H 4141 3505 50  0000 L CNN
F 2 "Capacitor_SMD:CP_Elec_6.3x5.9" H 4050 3550 50  0001 C CNN
F 3 "~" H 4050 3550 50  0001 C CNN
	1    4050 3550
	1    0    0    -1  
$EndComp
$Comp
L Device:C_Small C2
U 1 1 6193D70D
P 2240 5775
F 0 "C2" H 2040 5875 50  0000 L CNN
F 1 "0.1uF" H 1940 5775 50  0000 L CNN
F 2 "Capacitor_SMD:C_0805_2012Metric" H 2240 5775 50  0001 C CNN
F 3 "~" H 2240 5775 50  0001 C CNN
	1    2240 5775
	1    0    0    -1  
$EndComp
$Comp
L Device:C_Small C3
U 1 1 6193FF42
P 3140 5775
F 0 "C3" H 3240 5875 50  0000 L CNN
F 1 "0.1uF" H 3240 5775 50  0000 L CNN
F 2 "Capacitor_SMD:C_0805_2012Metric" H 3140 5775 50  0001 C CNN
F 3 "~" H 3140 5775 50  0001 C CNN
	1    3140 5775
	1    0    0    -1  
$EndComp
$Comp
L Device:C_Small C?
U 1 1 00000000
P 6330 2250
F 0 "C?" H 6365 2320 50  0000 L CNN
F 1 "0.1uF" H 6085 2320 50  0000 L CNN
F 2 "Capacitor_SMD:C_0805_2012Metric" H 6330 2250 50  0001 C CNN
F 3 "~" H 6330 2250 50  0001 C CNN
	1    6330 2250
	-1   0    0    1   
$EndComp
$Comp
L Device:C_Small C?
U 1 1 00000000
P 6670 1235
F 0 "C?" H 6770 1335 50  0000 L CNN
F 1 "0.01uF" H 6770 1235 50  0000 L CNN
F 2 "Capacitor_SMD:C_0805_2012Metric" H 6670 1235 50  0001 C CNN
F 3 "~" H 6670 1235 50  0001 C CNN
	1    6670 1235
	-1   0    0    1   
$EndComp
$Comp
L Device:C_Small C?
U 1 1 00000000
P 6760 2250
F 0 "C?" H 6805 2185 50  0000 L CNN
F 1 "2.2nF" H 6515 2175 50  0000 L CNN
F 2 "Capacitor_SMD:C_0805_2012Metric" H 6760 2250 50  0001 C CNN
F 3 "~" H 6760 2250 50  0001 C CNN
	1    6760 2250
	-1   0    0    1   
$EndComp
$Comp
L Switch:SW_Push SW1
U 1 1 617FCE9C
P 10175 5115
F 0 "SW1" V 10129 5263 50  0000 L CNN
F 1 "Config" V 10220 5263 50  0000 L CNN
F 2 "CryptiClock:Button_Config" H 10175 5315 50  0001 C CNN
F 3 "~" H 10175 5315 50  0001 C CNN
	1    10175 5115
	0    1    1    0   
$EndComp
$Comp
L Sensor_Optical:LDR03 R?
U 1 1 00000000
P 2060 1450
F 0 "R?" H 2130 1500 50  0000 L CNN
F 1 "5516" V 2070 1350 50  0000 L CNN
F 2 "OptoDevice:R_LDR_10x8.5mm_P7.6mm_Vertical" V 2235 1450 50  0001 C CNN
F 3 "http://www.elektronica-componenten.nl/WebRoot/StoreNL/Shops/61422969/54F1/BA0C/C664/31B9/2173/C0A8/2AB9/2AEF/LDR03IMP.pdf" H 2060 1400 50  0001 C CNN
	1    2060 1450
	1    0    0    -1  
$EndComp
$Comp
L Sensor_Optical:LDR03 R?
U 1 1 00000000
P 2440 1450
F 0 "R?" H 2540 1500 50  0000 L CNN
F 1 "5516" V 2440 1360 50  0000 L CNN
F 2 "OptoDevice:R_LDR_10x8.5mm_P7.6mm_Vertical" V 2615 1450 50  0001 C CNN
F 3 "http://www.elektronica-componenten.nl/WebRoot/StoreNL/Shops/61422969/54F1/BA0C/C664/31B9/2173/C0A8/2AB9/2AEF/LDR03IMP.pdf" H 2440 1400 50  0001 C CNN
	1    2440 1450
	1    0    0    -1  
$EndComp
$Comp
L Transistor_FET:2N7002 Q1
U 1 1 61EBF6F4
P 5100 4000
F 0 "Q1" V 5000 4150 50  0000 C CNN
F 1 "2N7002" V 5400 4000 50  0000 C CNN
F 2 "Package_TO_SOT_SMD:SOT-23" H 5300 3925 50  0001 L CIN
F 3 "https://www.onsemi.com/pub/Collateral/NDS7002A-D.PDF" H 5100 4000 50  0001 L CNN
	1    5100 4000
	0    -1   1    0   
$EndComp
$Comp
L Connector:Barrel_Jack J1
U 1 1 618010FE
P 5150 5600
F 0 "J1" H 5207 5925 50  0000 C CNN
F 1 "Barrel_Jack" H 5207 5834 50  0000 C CNN
F 2 "Connector_BarrelJack:BarrelJack_CLIFF_FC681465S_SMT_Horizontal" H 5200 5560 50  0001 C CNN
F 3 "~" H 5200 5560 50  0001 C CNN
	1    5150 5600
	1    0    0    -1  
$EndComp
$Comp
L MCU_Module:WeMos_D1_mini U1
U 1 1 617F9FC8
P 2690 6725
F 0 "U1" H 2440 7475 50  0000 C CNN
F 1 "WeMos_D1_mini" V 2440 6325 50  0000 C CNN
F 2 "Module:WEMOS_D1_mini_light" H 2690 5575 50  0001 C CNN
F 3 "https://wiki.wemos.cc/products:d1:d1_mini#documentation" H 840 5575 50  0001 C CNN
	1    2690 6725
	1    0    0    -1  
$EndComp
$Comp
L RF_Module:ESP-12E U?
U 1 1 00000000
P 7750 4115
F 0 "U?" H 7270 4895 50  0000 L CNN
F 1 "ESP-12E" V 7740 3960 50  0000 L CNN
F 2 "RF_Module:ESP-12E" H 7750 4115 50  0001 C CNN
F 3 "http://wiki.ai-thinker.com/_media/esp8266/esp8266_series_modules_user_manual_v1.1.pdf" H 7400 4215 50  0001 C CNN
	1    7750 4115
	1    0    0    -1  
$EndComp
$Comp
L Sensor_Motion:MPU-6050 U?
U 1 1 00000000
P 5525 1805
F 0 "U?" H 5055 2400 50  0000 L CNN
F 1 "MPU-6050" V 5525 1605 50  0000 L CNN
F 2 "Sensor_Motion:InvenSense_QFN-24_4x4mm_P0.5mm" H 5525 1005 50  0001 C CNN
F 3 "https://store.invensense.com/datasheets/invensense/MPU-6050_DataSheet_V3%204.pdf" H 5525 1655 50  0001 C CNN
	1    5525 1805
	1    0    0    -1  
$EndComp
$Comp
L CryptiClock:Display8x8 U3
U 1 1 617FC14B
P 2750 4100
F 0 "U3" V 3650 4900 50  0000 C CNN
F 1 "Display8x8" V 3650 4100 50  0000 C CNN
F 2 "CryptiClock:Display_WS2182B_8x8" H 1500 2850 50  0001 C CNN
F 3 "" H 1500 2850 50  0001 C CNN
	1    2750 4100
	0    -1   -1   0   
$EndComp
$EndSCHEMATC
