EESchema Schematic File Version 4
EELAYER 30 0
EELAYER END
$Descr A4 11693 8268
encoding utf-8
Sheet 1 1
Title "CryptiClock"
Date "2022-01-10"
Rev "1.3"
Comp ""
Comment1 ""
Comment2 ""
Comment3 "Inspired by https://www.instructables.com/Cistercian-Digital-Clock/ ."
Comment4 "A \"cryptic'\" clock powered by an ESP8266 Weimos D1 mini board."
$EndDescr
$Comp
L MCU_Module:WeMos_D1_mini U1
U 1 1 617F9FC8
P 7450 4750
F 0 "U1" H 7200 5500 50  0000 C CNN
F 1 "WeMos_D1_mini" V 7200 4350 50  0000 C CNN
F 2 "Module:WEMOS_D1_mini_light" H 7450 3600 50  0001 C CNN
F 3 "https://wiki.wemos.cc/products:d1:d1_mini#documentation" H 5600 3600 50  0001 C CNN
	1    7450 4750
	1    0    0    -1  
$EndComp
$Comp
L CryptiClock:Accel_MPU6500 U2
U 1 1 617FAC50
P 8700 4700
F 0 "U2" V 8100 4500 50  0000 L CNN
F 1 "Accel_MPU6500" H 8450 4850 50  0000 L CNN
F 2 "MPU6050" H 8150 4500 50  0001 C CNN
F 3 "" H 8150 4500 50  0001 C CNN
	1    8700 4700
	0    1    1    0   
$EndComp
$Comp
L CryptiClock:Display8x8 U3
U 1 1 617FC14B
P 2750 4100
F 0 "U3" V 3650 4900 50  0000 C CNN
F 1 "Display8x8" V 3650 4100 50  0000 C CNN
F 2 "CryptiClock:Display_WS2182B_8x8" H 1500 2850 50  0001 C CNN
F 3 "" H 1500 2850 50  0001 C CNN
	1    2750 4100
	0    -1   -1   0   
$EndComp
$Comp
L power:+5V #PWR0104
U 1 1 6181F201
P 3800 3350
F 0 "#PWR0104" H 3800 3200 50  0001 C CNN
F 1 "+5V" H 3815 3523 50  0000 C CNN
F 2 "" H 3800 3350 50  0001 C CNN
F 3 "" H 3800 3350 50  0001 C CNN
	1    3800 3350
	-1   0    0    -1  
$EndComp
Wire Wire Line
	3700 3950 3800 3950
Text GLabel 7950 4950 2    50   Input ~ 0
Din
Wire Wire Line
	7850 4950 7950 4950
Wire Wire Line
	7850 4450 8400 4450
Wire Wire Line
	7850 4550 8400 4550
$Comp
L power:GND #PWR0105
U 1 1 6182A76B
P 7450 5650
F 0 "#PWR0105" H 7450 5400 50  0001 C CNN
F 1 "GND" H 7455 5477 50  0000 C CNN
F 2 "" H 7450 5650 50  0001 C CNN
F 3 "" H 7450 5650 50  0001 C CNN
	1    7450 5650
	1    0    0    -1  
$EndComp
Wire Wire Line
	7450 5550 7450 5650
$Comp
L power:+5V #PWR0106
U 1 1 6182AF57
P 8300 4150
F 0 "#PWR0106" H 8300 4000 50  0001 C CNN
F 1 "+5V" H 8315 4323 50  0000 C CNN
F 2 "" H 8300 4150 50  0001 C CNN
F 3 "" H 8300 4150 50  0001 C CNN
	1    8300 4150
	-1   0    0    -1  
$EndComp
Wire Wire Line
	8300 4150 8300 4250
Wire Wire Line
	8300 4250 8400 4250
$Comp
L power:GND #PWR0107
U 1 1 6182BC32
P 8300 4350
F 0 "#PWR0107" H 8300 4100 50  0001 C CNN
F 1 "GND" V 8305 4222 50  0000 R CNN
F 2 "" H 8300 4350 50  0001 C CNN
F 3 "" H 8300 4350 50  0001 C CNN
	1    8300 4350
	0    1    1    0   
$EndComp
Wire Wire Line
	8300 4350 8400 4350
NoConn ~ 8400 4650
NoConn ~ 8400 4750
NoConn ~ 8400 4850
NoConn ~ 8400 4950
NoConn ~ 8400 5050
NoConn ~ 8400 5150
NoConn ~ 7850 5150
NoConn ~ 7850 5050
NoConn ~ 7850 4750
NoConn ~ 7850 4650
NoConn ~ 7850 4350
NoConn ~ 7850 4250
$Comp
L power:+3V3 #PWR0108
U 1 1 6182E43C
P 7550 3550
F 0 "#PWR0108" H 7550 3400 50  0001 C CNN
F 1 "+3V3" H 7565 3723 50  0000 C CNN
F 2 "" H 7550 3550 50  0001 C CNN
F 3 "" H 7550 3550 50  0001 C CNN
	1    7550 3550
	-1   0    0    -1  
$EndComp
$Comp
L power:+5V #PWR0109
U 1 1 6182EFB4
P 7350 3550
F 0 "#PWR0109" H 7350 3400 50  0001 C CNN
F 1 "+5V" H 7365 3723 50  0000 C CNN
F 2 "" H 7350 3550 50  0001 C CNN
F 3 "" H 7350 3550 50  0001 C CNN
	1    7350 3550
	-1   0    0    -1  
$EndComp
NoConn ~ 7050 4350
NoConn ~ 7050 4650
NoConn ~ 7050 4750
$Comp
L power:GND #PWR0111
U 1 1 61832D72
P 2900 1900
F 0 "#PWR0111" H 2900 1650 50  0001 C CNN
F 1 "GND" H 2905 1727 50  0000 C CNN
F 2 "" H 2900 1900 50  0001 C CNN
F 3 "" H 2900 1900 50  0001 C CNN
	1    2900 1900
	1    0    0    -1  
$EndComp
Wire Wire Line
	2600 1900 2600 1800
Wire Wire Line
	2600 1800 2900 1800
Wire Wire Line
	2900 1800 2900 1900
$Comp
L power:+5V #PWR0112
U 1 1 61833B30
P 2600 1600
F 0 "#PWR0112" H 2600 1450 50  0001 C CNN
F 1 "+5V" H 2615 1773 50  0000 C CNN
F 2 "" H 2600 1600 50  0001 C CNN
F 3 "" H 2600 1600 50  0001 C CNN
	1    2600 1600
	-1   0    0    -1  
$EndComp
$Comp
L power:PWR_FLAG #FLG0101
U 1 1 61834A21
P 2900 1600
F 0 "#FLG0101" H 2900 1675 50  0001 C CNN
F 1 "PWR_FLAG" H 2900 1773 50  0000 C CNN
F 2 "" H 2900 1600 50  0001 C CNN
F 3 "~" H 2900 1600 50  0001 C CNN
	1    2900 1600
	1    0    0    -1  
$EndComp
Wire Wire Line
	2600 1600 2600 1700
Wire Wire Line
	2600 1700 2900 1700
Wire Wire Line
	2900 1700 2900 1600
$Comp
L power:PWR_FLAG #FLG0102
U 1 1 61848C14
P 2600 1900
F 0 "#FLG0102" H 2600 1975 50  0001 C CNN
F 1 "PWR_FLAG" H 2600 2073 50  0000 C CNN
F 2 "" H 2600 1900 50  0001 C CNN
F 3 "~" H 2600 1900 50  0001 C CNN
	1    2600 1900
	-1   0    0    1   
$EndComp
$Comp
L Switch:SW_Push SW1
U 1 1 617FCE9C
P 8200 5450
F 0 "SW1" V 8154 5598 50  0000 L CNN
F 1 "Config" V 8245 5598 50  0000 L CNN
F 2 "CryptiClock:Button_Config" H 8200 5650 50  0001 C CNN
F 3 "~" H 8200 5650 50  0001 C CNN
	1    8200 5450
	0    1    1    0   
$EndComp
$Comp
L power:GND #PWR0101
U 1 1 617FE91B
P 8200 5650
F 0 "#PWR0101" H 8200 5400 50  0001 C CNN
F 1 "GND" H 8205 5477 50  0000 C CNN
F 2 "" H 8200 5650 50  0001 C CNN
F 3 "" H 8200 5650 50  0001 C CNN
	1    8200 5650
	1    0    0    -1  
$EndComp
Wire Wire Line
	8200 4850 8200 5250
Wire Wire Line
	7850 4850 8200 4850
$Comp
L Connector:Barrel_Jack J1
U 1 1 618010FE
P 5150 5600
F 0 "J1" H 5207 5925 50  0000 C CNN
F 1 "Barrel_Jack" H 5207 5834 50  0000 C CNN
F 2 "Connector_BarrelJack:BarrelJack_CLIFF_FC681465S_SMT_Horizontal" H 5200 5560 50  0001 C CNN
F 3 "~" H 5200 5560 50  0001 C CNN
	1    5150 5600
	1    0    0    -1  
$EndComp
$Comp
L power:GND #PWR0102
U 1 1 61801C5F
P 5500 5750
F 0 "#PWR0102" H 5500 5500 50  0001 C CNN
F 1 "GND" H 5505 5577 50  0000 C CNN
F 2 "" H 5500 5750 50  0001 C CNN
F 3 "" H 5500 5750 50  0001 C CNN
	1    5500 5750
	1    0    0    -1  
$EndComp
Wire Wire Line
	5450 5700 5500 5700
Wire Wire Line
	5500 5700 5500 5750
$Comp
L power:+5V #PWR0110
U 1 1 61803177
P 5500 5450
F 0 "#PWR0110" H 5500 5300 50  0001 C CNN
F 1 "+5V" H 5515 5623 50  0000 C CNN
F 2 "" H 5500 5450 50  0001 C CNN
F 3 "" H 5500 5450 50  0001 C CNN
	1    5500 5450
	-1   0    0    -1  
$EndComp
Wire Wire Line
	5450 5500 5500 5500
Wire Wire Line
	5500 5500 5500 5450
$Comp
L Device:CP1_Small C1
U 1 1 619375C8
P 4050 3550
F 0 "C1" H 4141 3596 50  0000 L CNN
F 1 "100uF" H 4141 3505 50  0000 L CNN
F 2 "Capacitor_SMD:CP_Elec_6.3x5.9" H 4050 3550 50  0001 C CNN
F 3 "~" H 4050 3550 50  0001 C CNN
	1    4050 3550
	1    0    0    -1  
$EndComp
$Comp
L power:GND #PWR0114
U 1 1 61938033
P 4050 3650
F 0 "#PWR0114" H 4050 3400 50  0001 C CNN
F 1 "GND" H 4055 3477 50  0000 C CNN
F 2 "" H 4050 3650 50  0001 C CNN
F 3 "" H 4050 3650 50  0001 C CNN
	1    4050 3650
	1    0    0    -1  
$EndComp
Wire Wire Line
	3800 3350 3800 3400
Wire Wire Line
	4050 3450 4050 3400
Wire Wire Line
	4050 3400 3800 3400
Connection ~ 3800 3400
Wire Wire Line
	3800 3400 3800 3950
$Comp
L Device:C_Small C2
U 1 1 6193D70D
P 7000 3800
F 0 "C2" H 6800 3900 50  0000 L CNN
F 1 "0.1uF" H 6700 3800 50  0000 L CNN
F 2 "Capacitor_SMD:C_0805_2012Metric" H 7000 3800 50  0001 C CNN
F 3 "~" H 7000 3800 50  0001 C CNN
	1    7000 3800
	1    0    0    -1  
$EndComp
$Comp
L power:GND #PWR0113
U 1 1 6193E01A
P 7000 3900
F 0 "#PWR0113" H 7000 3650 50  0001 C CNN
F 1 "GND" H 7005 3727 50  0000 C CNN
F 2 "" H 7000 3900 50  0001 C CNN
F 3 "" H 7000 3900 50  0001 C CNN
	1    7000 3900
	1    0    0    -1  
$EndComp
Wire Wire Line
	7000 3700 7350 3700
Wire Wire Line
	7350 3700 7350 3550
Wire Wire Line
	7350 3700 7350 3950
Connection ~ 7350 3700
$Comp
L Device:C_Small C3
U 1 1 6193FF42
P 7900 3800
F 0 "C3" H 8000 3900 50  0000 L CNN
F 1 "0.1uF" H 8000 3800 50  0000 L CNN
F 2 "Capacitor_SMD:C_0805_2012Metric" H 7900 3800 50  0001 C CNN
F 3 "~" H 7900 3800 50  0001 C CNN
	1    7900 3800
	1    0    0    -1  
$EndComp
$Comp
L power:GND #PWR0115
U 1 1 61940BF9
P 7900 3900
F 0 "#PWR0115" H 7900 3650 50  0001 C CNN
F 1 "GND" H 7905 3727 50  0000 C CNN
F 2 "" H 7900 3900 50  0001 C CNN
F 3 "" H 7900 3900 50  0001 C CNN
	1    7900 3900
	1    0    0    -1  
$EndComp
Wire Wire Line
	7550 3550 7550 3700
Wire Wire Line
	7550 3700 7900 3700
Connection ~ 7550 3700
Wire Wire Line
	7550 3700 7550 3950
$Comp
L Device:R_Small R1
U 1 1 61E2A093
P 5450 3900
F 0 "R1" H 5300 3750 50  0000 L CNN
F 1 "10K" H 5250 3850 50  0000 L CNN
F 2 "Resistor_SMD:R_0805_2012Metric_Pad1.20x1.40mm_HandSolder" H 5450 3900 50  0001 C CNN
F 3 "~" H 5450 3900 50  0001 C CNN
	1    5450 3900
	-1   0    0    1   
$EndComp
$Comp
L Device:R_Small R2
U 1 1 61E2EEDD
P 4700 3900
F 0 "R2" H 4800 3800 50  0000 L CNN
F 1 "10K" H 4750 3900 50  0000 L CNN
F 2 "Resistor_SMD:R_0805_2012Metric_Pad1.20x1.40mm_HandSolder" H 4700 3900 50  0001 C CNN
F 3 "~" H 4700 3900 50  0001 C CNN
	1    4700 3900
	-1   0    0    1   
$EndComp
Wire Wire Line
	4700 4000 4700 4100
Wire Wire Line
	5450 4100 5450 4000
$Comp
L power:+3V3 #PWR0103
U 1 1 61E32616
P 5450 3650
F 0 "#PWR0103" H 5450 3500 50  0001 C CNN
F 1 "+3V3" H 5465 3823 50  0000 C CNN
F 2 "" H 5450 3650 50  0001 C CNN
F 3 "" H 5450 3650 50  0001 C CNN
	1    5450 3650
	1    0    0    -1  
$EndComp
$Comp
L power:+5V #PWR0116
U 1 1 61E332CA
P 4700 3650
F 0 "#PWR0116" H 4700 3500 50  0001 C CNN
F 1 "+5V" H 4715 3823 50  0000 C CNN
F 2 "" H 4700 3650 50  0001 C CNN
F 3 "" H 4700 3650 50  0001 C CNN
	1    4700 3650
	1    0    0    -1  
$EndComp
Wire Wire Line
	5450 3650 5450 3700
Wire Wire Line
	4700 3650 4700 3800
Wire Wire Line
	5450 3700 5100 3700
Wire Wire Line
	5100 3700 5100 3800
Connection ~ 5450 3700
Wire Wire Line
	5450 3700 5450 3800
Text GLabel 5850 4100 2    50   Input ~ 0
Din
Wire Wire Line
	3700 4100 4700 4100
$Comp
L power:GND #PWR0117
U 1 1 61E4F96C
P 5850 4300
F 0 "#PWR0117" H 5850 4050 50  0001 C CNN
F 1 "GND" H 5855 4127 50  0000 C CNN
F 2 "" H 5850 4300 50  0001 C CNN
F 3 "" H 5850 4300 50  0001 C CNN
	1    5850 4300
	1    0    0    -1  
$EndComp
Wire Notes Line
	4400 4650 4400 3300
Text Notes 4400 4750 0    50   ~ 0
3v3 to 5v level shifter
Wire Notes Line
	1750 3100 4350 3100
Wire Notes Line
	4350 3100 4350 5100
Wire Notes Line
	4350 5100 1750 5100
Wire Notes Line
	1750 5100 1750 3100
Text Notes 1750 5200 0    50   ~ 0
8x8 display
Wire Notes Line
	6550 3150 9200 3150
Wire Notes Line
	9150 3150 9150 6050
Wire Notes Line
	9150 6050 6500 6050
Wire Notes Line
	6500 6050 6500 3150
Text Notes 6500 6150 0    50   ~ 0
Microcontroller and accelerometer
Wire Notes Line
	4700 5100 5800 5100
Wire Notes Line
	5800 5100 5800 6100
Wire Notes Line
	5800 6100 4700 6100
Wire Notes Line
	4700 6100 4700 5100
Text Notes 4700 6200 0    50   ~ 0
Aux 5v input
$Comp
L Transistor_FET:2N7002 Q1
U 1 1 61EBF6F4
P 5100 4000
F 0 "Q1" V 5000 4150 50  0000 C CNN
F 1 "2N7002" V 5400 4000 50  0000 C CNN
F 2 "Package_TO_SOT_SMD:SOT-23" H 5300 3925 50  0001 L CIN
F 3 "https://www.onsemi.com/pub/Collateral/NDS7002A-D.PDF" H 5100 4000 50  0001 L CNN
	1    5100 4000
	0    -1   1    0   
$EndComp
Wire Wire Line
	4700 4100 4900 4100
Connection ~ 4700 4100
Wire Wire Line
	5300 4100 5450 4100
$Comp
L Device:R_Small R3
U 1 1 61EE6333
P 5650 4100
F 0 "R3" V 5550 4050 50  0000 L CNN
F 1 "330" V 5750 4000 50  0000 L CNN
F 2 "Resistor_SMD:R_0805_2012Metric_Pad1.20x1.40mm_HandSolder" H 5650 4100 50  0001 C CNN
F 3 "~" H 5650 4100 50  0001 C CNN
	1    5650 4100
	0    -1   -1   0   
$EndComp
Wire Wire Line
	5450 4100 5550 4100
Connection ~ 5450 4100
Wire Wire Line
	5750 4100 5850 4100
Wire Wire Line
	5850 4250 5850 4300
Wire Wire Line
	3700 4250 5850 4250
Wire Notes Line
	6100 3300 6100 4650
Wire Notes Line
	4400 3300 6100 3300
Wire Notes Line
	4400 4650 6100 4650
$EndSCHEMATC
