0
SECTION
2
ENTITIES
0
CIRCLE
8
Edge.Cuts
62
2
10
197.65
20
-98.45
40
1.0
0
LINE
8
Edge.Cuts
62
2
10
201.6
20
-152.0
11
202.9
21
-152.0
0
LINE
8
Edge.Cuts
62
2
10
124.7
20
-132.85
11
124.7
21
-138.15
0
LINE
8
Edge.Cuts
62
2
10
115.65
20
-96.45
11
115.65
21
-82.45
0
LINE
8
Edge.Cuts
62
2
10
131.0
20
-122.25
11
131.0
21
-123.75
0
LINE
8
Edge.Cuts
62
2
10
39.85
20
-147.5
11
39.85
21
-146.1
0
LINE
8
Edge.Cuts
62
2
10
60.15
20
-146.1
11
60.15
21
-144.1
0
LINE
8
Edge.Cuts
62
2
10
40.25
20
-147.5
11
39.85
21
-147.5
0
LINE
8
Edge.Cuts
62
2
10
110.75
20
-155.5
11
110.75
21
-155.1
0
LINE
8
Edge.Cuts
62
2
10
98.15
20
-146.1
11
98.15
21
-144.1
0
LINE
8
Edge.Cuts
62
2
10
200.5
20
-128.55
11
200.5
21
-127.15
0
LINE
8
Edge.Cuts
62
2
10
113.7
20
-123.3
11
113.7
21
-126.6
0
LINE
8
Edge.Cuts
62
2
10
122.7
20
-132.85
11
124.7
21
-132.85
0
LINE
8
Edge.Cuts
62
2
10
130.6
20
-145.3
11
130.2
21
-145.3
0
CIRCLE
8
Edge.Cuts
62
2
10
126.65
20
-68.45
40
0.65
0
LINE
8
Edge.Cuts
62
2
10
30.15
20
-159.4
11
32.15
21
-159.4
0
LINE
8
Edge.Cuts
62
2
10
60.15
20
-144.1
11
46.15
21
-144.1
0
LINE
8
Edge.Cuts
62
2
10
59.7
20
-139.9
11
83.7
21
-139.9
0
LINE
8
Edge.Cuts
62
2
10
122.3
20
-145.9
11
124.3
21
-145.9
0
LINE
8
Edge.Cuts
62
2
10
31.65
20
-58.45
11
31.65
21
-44.45
0
LINE
8
Edge.Cuts
62
2
10
33.65
20
-58.45
11
33.65
21
-44.45
0
LINE
8
Edge.Cuts
62
2
10
152.3
20
-142.6
11
176.3
21
-142.6
0
LINE
8
Edge.Cuts
62
2
10
47.65
20
-110.45
11
61.65
21
-110.45
0
ARC
8
Edge.Cuts
62
2
10
29.65
20
-114.45
30
0
40
4.0
50
180.000006
51
269.999994
0
LINE
8
Edge.Cuts
62
2
10
112.15
20
-149.4
11
114.15
21
-149.4
0
LINE
8
Edge.Cuts
62
2
10
122.7
20
-122.85
11
124.7
21
-122.85
0
LINE
8
Edge.Cuts
62
2
10
38.05
20
-147.5
11
38.45
21
-147.5
0
LINE
8
Edge.Cuts
62
2
10
131.0
20
-122.25
11
130.6
21
-122.25
0
LINE
8
Edge.Cuts
62
2
10
114.15
20
-159.4
11
114.15
21
-164.7
0
LINE
8
Edge.Cuts
62
2
10
202.9
20
-151.6
11
204.3
21
-151.6
0
LINE
8
Edge.Cuts
62
2
10
202.0
20
-127.15
11
202.0
21
-126.75
0
LINE
8
Edge.Cuts
62
2
10
68.7
20
-130.3
11
74.7
21
-130.3
0
LINE
8
Edge.Cuts
62
2
10
125.65
20
-80.45
11
127.65
21
-80.45
0
LINE
8
Edge.Cuts
62
2
10
132.4
20
-120.95
11
132.4
21
-119.55
0
LINE
8
Edge.Cuts
62
2
10
38.45
20
-148.8
11
38.45
21
-150.3
0
LINE
8
Edge.Cuts
62
2
10
138.7
20
-117.55
11
138.7
21
-119.55
0
LINE
8
Edge.Cuts
62
2
10
109.45
20
-155.5
11
110.75
21
-155.5
0
LINE
8
Edge.Cuts
62
2
10
40.25
20
-148.8
11
40.25
21
-147.5
0
ARC
8
Edge.Cuts
62
2
10
29.65
20
-26.45
30
0
40
4.0
50
90.000006
51
179.999994
0
CIRCLE
8
Edge.Cuts
62
2
10
30.77
20
-131.6
40
0.65
0
LINE
8
Edge.Cuts
62
2
10
152.3
20
-159.2
11
176.3
21
-159.2
0
LINE
8
Edge.Cuts
62
2
10
45.7
20
-123.3
11
39.4
21
-123.3
0
LINE
8
Edge.Cuts
62
2
10
72.85
20
-160.0
11
73.25
21
-160.0
0
LINE
8
Edge.Cuts
62
2
10
45.7
20
-121.3
11
45.7
21
-123.3
0
CIRCLE
8
Edge.Cuts
62
2
10
106.65
20
-29.45
40
0.65
0
LINE
8
Edge.Cuts
62
2
10
47.65
20
-28.45
11
47.65
21
-30.45
0
LINE
8
Edge.Cuts
62
2
10
111.7
20
-136.6
11
113.7
21
-136.6
0
LINE
8
Edge.Cuts
62
2
10
85.65
20
-112.45
11
99.65
21
-112.45
0
LINE
8
Edge.Cuts
62
2
10
202.0
20
-128.55
11
202.0
21
-128.95
0
LINE
8
Edge.Cuts
62
2
10
202.0
20
-128.95
11
203.3
21
-128.95
0
LINE
8
Edge.Cuts
62
2
10
131.0
20
-120.95
11
131.0
21
-119.55
0
LINE
8
Edge.Cuts
62
2
10
204.3
20
-155.9
11
204.3
21
-151.6
0
LINE
8
Edge.Cuts
62
2
10
179.65
20
-110.45
11
155.65
21
-110.45
0
LINE
8
Edge.Cuts
62
2
10
206.3
20
-155.9
11
206.3
21
-161.2
0
LINE
8
Edge.Cuts
62
2
10
61.65
20
-28.45
11
61.65
21
-30.45
0
LINE
8
Edge.Cuts
62
2
10
176.7
20
-136.15
11
176.7
21
-138.15
0
CIRCLE
8
Edge.Cuts
62
2
10
123.77
20
-127.85
40
0.65
0
LINE
8
Edge.Cuts
62
2
10
115.65
20
-58.45
11
115.65
21
-44.45
0
LINE
8
Edge.Cuts
62
2
10
84.15
20
-144.1
11
84.15
21
-146.1
0
LINE
8
Edge.Cuts
62
2
10
132.4
20
-122.25
11
132.4
21
-123.75
0
LINE
8
Edge.Cuts
62
2
10
152.7
20
-117.55
11
138.7
21
-117.55
0
LINE
8
Edge.Cuts
62
2
10
30.15
20
-159.4
11
30.15
21
-149.4
0
LINE
8
Edge.Cuts
62
2
10
122.3
20
-155.9
11
122.3
21
-145.9
0
LINE
8
Edge.Cuts
62
2
10
176.3
20
-140.6
11
176.3
21
-142.6
0
LINE
8
Edge.Cuts
62
2
10
29.65
20
-118.45
11
117.65
21
-118.45
0
LINE
8
Edge.Cuts
62
2
10
113.7
20
-136.6
11
113.7
21
-141.9
0
LINE
8
Edge.Cuts
62
2
10
37.6
20
-124.7
11
38.0
21
-124.7
0
LINE
8
Edge.Cuts
62
2
10
132.4
20
-122.25
11
132.8
21
-122.25
0
LINE
8
Edge.Cuts
62
2
10
206.7
20
-119.55
11
206.7
21
-122.85
0
LINE
8
Edge.Cuts
62
2
10
30.15
20
-149.4
11
32.15
21
-149.4
0
LINE
8
Edge.Cuts
62
2
10
46.15
20
-144.1
11
46.15
21
-146.1
0
CIRCLE
8
Edge.Cuts
62
2
10
32.65
20
-37.45
40
0.65
0
LINE
8
Edge.Cuts
62
2
10
59.7
20
-123.3
11
83.7
21
-123.3
0
LINE
8
Edge.Cuts
62
2
10
31.65
20
-82.45
11
33.65
21
-82.45
0
LINE
8
Edge.Cuts
62
2
10
190.7
20
-119.55
11
206.7
21
-119.55
0
LINE
8
Edge.Cuts
62
2
10
163.6
20
-133.45
11
163.6
21
-134.75
0
LINE
8
Edge.Cuts
62
2
10
201.6
20
-150.2
11
200.1
21
-150.2
0
LINE
8
Edge.Cuts
62
2
10
110.3
20
-132.3
11
111.7
21
-132.3
0
LINE
8
Edge.Cuts
62
2
10
71.05
20
-161.3
11
71.45
21
-161.3
0
LINE
8
Edge.Cuts
62
2
10
31.65
20
-44.45
11
33.65
21
-44.45
0
LINE
8
Edge.Cuts
62
2
10
38.05
20
-148.8
11
38.05
21
-147.5
0
LINE
8
Edge.Cuts
62
2
10
29.7
20
-136.6
11
31.7
21
-136.6
0
LINE
8
Edge.Cuts
62
2
10
124.7
20
-119.55
11
124.7
21
-122.85
0
LINE
8
Edge.Cuts
62
2
10
130.6
20
-145.3
11
130.6
21
-146.8
0
LINE
8
Edge.Cuts
62
2
10
152.7
20
-119.55
11
176.7
21
-119.55
0
LINE
8
Edge.Cuts
62
2
10
111.7
20
-126.6
11
113.7
21
-126.6
0
LINE
8
Edge.Cuts
62
2
10
124.3
20
-142.6
11
124.3
21
-145.9
0
LINE
8
Edge.Cuts
62
2
10
31.65
20
-58.45
11
33.65
21
-58.45
0
LINE
8
Edge.Cuts
62
2
10
71.45
20
-158.5
11
72.85
21
-158.5
0
LINE
8
Edge.Cuts
62
2
10
155.65
20
-26.45
11
155.65
21
-28.45
0
LINE
8
Edge.Cuts
62
2
10
85.65
20
-110.45
11
85.65
21
-112.45
0
LINE
8
Edge.Cuts
62
2
10
138.3
20
-142.6
11
132.0
21
-142.6
0
LINE
8
Edge.Cuts
62
2
10
31.7
20
-136.6
11
31.7
21
-141.9
0
LINE
8
Edge.Cuts
62
2
10
71.05
20
-160.0
11
71.05
21
-161.3
0
LINE
8
Edge.Cuts
62
2
10
39.8
20
-124.7
11
39.4
21
-124.7
0
LINE
8
Edge.Cuts
62
2
10
204.7
20
-122.85
11
206.7
21
-122.85
0
LINE
8
Edge.Cuts
62
2
10
122.7
20
-132.85
11
122.7
21
-122.85
0
LINE
8
Edge.Cuts
62
2
10
39.85
20
-148.8
11
39.85
21
-150.3
0
LINE
8
Edge.Cuts
62
2
10
85.65
20
-28.45
11
85.65
21
-30.45
0
LINE
8
Edge.Cuts
62
2
10
206.7
20
-132.85
11
206.7
21
-138.15
0
LINE
8
Edge.Cuts
62
2
10
61.65
20
-110.45
11
61.65
21
-112.45
0
LINE
8
Edge.Cuts
62
2
10
109.45
20
-155.1
11
107.95
21
-155.1
0
LINE
8
Edge.Cuts
62
2
10
204.3
20
-155.9
11
206.3
21
-155.9
0
LINE
8
Edge.Cuts
62
2
10
38.45
20
-148.8
11
38.05
21
-148.8
0
LINE
8
Edge.Cuts
62
2
10
176.7
20
-117.55
11
176.7
21
-119.55
0
LINE
8
Edge.Cuts
62
2
10
179.65
20
-110.45
11
179.65
21
-108.45
0
LINE
8
Edge.Cuts
62
2
10
176.7
20
-138.15
11
206.7
21
-138.15
0
LINE
8
Edge.Cuts
62
2
10
209.65
20
-56.45
11
209.65
21
-80.45
0
LINE
8
Edge.Cuts
62
2
10
84.15
20
-164.7
11
114.15
21
-164.7
0
LINE
8
Edge.Cuts
62
2
10
98.15
20
-146.1
11
114.15
21
-146.1
0
LINE
8
Edge.Cuts
62
2
10
112.15
20
-159.4
11
112.15
21
-155.1
0
LINE
8
Edge.Cuts
62
2
10
110.75
20
-155.1
11
112.15
21
-155.1
0
LINE
8
Edge.Cuts
62
2
10
113.65
20
-96.45
11
113.65
21
-82.45
0
LINE
8
Edge.Cuts
62
2
10
132.8
20
-120.95
11
132.4
21
-120.95
0
LINE
8
Edge.Cuts
62
2
10
206.3
20
-142.6
11
206.3
21
-145.9
0
LINE
8
Edge.Cuts
62
2
10
203.3
20
-126.75
11
203.3
21
-127.15
0
LINE
8
Edge.Cuts
62
2
10
138.3
20
-140.6
11
138.3
21
-142.6
0
LINE
8
Edge.Cuts
62
2
10
25.65
20
-26.45
11
25.65
21
-114.45
0
LINE
8
Edge.Cuts
62
2
10
203.3
20
-128.95
11
203.3
21
-128.55
0
LINE
8
Edge.Cuts
62
2
10
47.65
20
-112.45
11
61.65
21
-112.45
0
LINE
8
Edge.Cuts
62
2
10
46.15
20
-146.1
11
39.85
21
-146.1
0
LINE
8
Edge.Cuts
62
2
10
190.3
20
-140.6
11
176.3
21
-140.6
0
LINE
8
Edge.Cuts
62
2
10
110.3
20
-132.7
11
110.3
21
-132.3
0
LINE
8
Edge.Cuts
62
2
10
132.4
20
-144.0
11
132.0
21
-144.0
0
LINE
8
Edge.Cuts
62
2
10
84.15
20
-162.7
11
84.15
21
-164.7
0
ARC
8
Edge.Cuts
62
2
10
117.65
20
-26.45
30
0
40
4.0
50
6e-06
51
89.999994
0
LINE
8
Edge.Cuts
62
2
10
110.3
20
-130.9
11
111.7
21
-130.9
0
LINE
8
Edge.Cuts
62
2
10
38.45
20
-147.5
11
38.45
21
-146.1
0
LINE
8
Edge.Cuts
62
2
10
167.65
20
-35.45
11
170.65
21
-46.45
0
LINE
8
Edge.Cuts
62
2
10
179.65
20
-26.45
11
179.65
21
-28.45
0
LINE
8
Edge.Cuts
62
2
10
59.7
20
-141.9
11
59.7
21
-139.9
0
LINE
8
Edge.Cuts
62
2
10
60.15
20
-146.1
11
84.15
21
-146.1
0
LINE
8
Edge.Cuts
62
2
10
165.4
20
-133.45
11
165.8
21
-133.45
0
LINE
8
Edge.Cuts
62
2
10
203.3
20
-127.15
11
204.7
21
-127.15
0
LINE
8
Edge.Cuts
62
2
10
31.65
20
-96.45
11
31.65
21
-82.45
0
LINE
8
Edge.Cuts
62
2
10
121.65
20
-26.45
11
121.65
21
-114.45
0
LINE
8
Edge.Cuts
62
2
10
201.6
20
-151.6
11
201.6
21
-152.0
0
LINE
8
Edge.Cuts
62
2
10
38.0
20
-124.7
11
38.0
21
-123.3
0
LINE
8
Edge.Cuts
62
2
10
207.65
20
-28.45
11
207.65
21
-56.45
0
LINE
8
Edge.Cuts
62
2
10
204.7
20
-132.85
11
206.7
21
-132.85
0
LINE
8
Edge.Cuts
62
2
10
201.6
20
-151.6
11
200.1
21
-151.6
0
LINE
8
Edge.Cuts
62
2
10
130.6
20
-120.95
11
131.0
21
-120.95
0
LINE
8
Edge.Cuts
62
2
10
110.75
20
-153.3
11
110.75
21
-153.7
0
LINE
8
Edge.Cuts
62
2
10
38.0
20
-126.0
11
37.6
21
-126.0
0
LINE
8
Edge.Cuts
62
2
10
132.0
20
-145.3
11
132.4
21
-145.3
0
LINE
8
Edge.Cuts
62
2
10
39.85
20
-148.8
11
40.25
21
-148.8
0
LINE
8
Edge.Cuts
62
2
10
130.6
20
-144.0
11
130.6
21
-142.6
0
LINE
8
Edge.Cuts
62
2
10
113.65
20
-44.45
11
115.65
21
-44.45
0
LINE
8
Edge.Cuts
62
2
10
114.15
20
-146.1
11
114.15
21
-149.4
0
LINE
8
Edge.Cuts
62
2
10
99.65
20
-110.45
11
99.65
21
-112.45
0
LINE
8
Edge.Cuts
62
2
10
125.65
20
-56.45
11
127.65
21
-56.45
0
LINE
8
Edge.Cuts
62
2
10
110.3
20
-130.5
11
110.3
21
-130.9
0
LINE
8
Edge.Cuts
62
2
10
130.6
20
-122.25
11
130.6
21
-120.95
0
LINE
8
Edge.Cuts
62
2
10
107.5
20
-132.3
11
107.5
21
-130.9
0
LINE
8
Edge.Cuts
62
2
10
132.8
20
-122.25
11
132.8
21
-120.95
0
LINE
8
Edge.Cuts
62
2
10
71.45
20
-160.0
11
71.45
21
-158.5
0
LINE
8
Edge.Cuts
62
2
10
202.0
20
-127.15
11
200.5
21
-127.15
0
LINE
8
Edge.Cuts
62
2
10
202.0
20
-128.55
11
200.5
21
-128.55
0
LINE
8
Edge.Cuts
62
2
10
152.7
20
-136.15
11
164.0
21
-136.15
0
LINE
8
Edge.Cuts
62
2
10
165.4
20
-136.15
11
176.7
21
-136.15
0
LINE
8
Edge.Cuts
62
2
10
111.7
20
-130.9
11
111.7
21
-126.6
0
LINE
8
Edge.Cuts
62
2
10
33.65
20
-96.45
11
33.65
21
-82.45
0
LINE
8
Edge.Cuts
62
2
10
127.65
20
-80.45
11
127.65
21
-108.45
0
CIRCLE
8
Edge.Cuts
62
2
10
208.65
20
-68.45
40
0.65
0
LINE
8
Edge.Cuts
62
2
10
167.65
20
-35.45
11
164.65
21
-46.45
0
LINE
8
Edge.Cuts
62
2
10
71.45
20
-161.3
11
71.45
21
-162.7
0
LINE
8
Edge.Cuts
62
2
10
130.6
20
-142.6
11
124.3
21
-142.6
0
LINE
8
Edge.Cuts
62
2
10
112.15
20
-153.7
11
112.15
21
-149.4
0
LINE
8
Edge.Cuts
62
2
10
113.65
20
-82.45
11
115.65
21
-82.45
0
LINE
8
Edge.Cuts
62
2
10
204.3
20
-145.9
11
206.3
21
-145.9
0
LINE
8
Edge.Cuts
62
2
10
109.0
20
-132.3
11
107.5
21
-132.3
0
LINE
8
Edge.Cuts
62
2
10
190.7
20
-119.55
11
190.7
21
-117.55
0
LINE
8
Edge.Cuts
62
2
10
165.8
20
-134.75
11
165.4
21
-134.75
0
LINE
8
Edge.Cuts
62
2
10
109.0
20
-132.3
11
109.0
21
-132.7
0
LINE
8
Edge.Cuts
62
2
10
85.65
20
-110.45
11
99.65
21
-110.45
0
LINE
8
Edge.Cuts
62
2
10
98.15
20
-144.1
11
84.15
21
-144.1
0
LINE
8
Edge.Cuts
62
2
10
152.3
20
-140.6
11
138.3
21
-140.6
0
LINE
8
Edge.Cuts
62
2
10
32.15
20
-159.4
11
32.15
21
-164.7
0
LINE
8
Edge.Cuts
62
2
10
164.0
20
-131.95
11
165.4
21
-131.95
0
LINE
8
Edge.Cuts
62
2
10
109.0
20
-130.5
11
110.3
21
-130.5
0
LINE
8
Edge.Cuts
62
2
10
38.0
20
-123.3
11
31.7
21
-123.3
0
LINE
8
Edge.Cuts
62
2
10
32.15
20
-164.7
11
60.15
21
-164.7
0
LINE
8
Edge.Cuts
62
2
10
37.6
20
-126.0
11
37.6
21
-124.7
0
LINE
8
Edge.Cuts
62
2
10
72.85
20
-162.7
11
84.15
21
-162.7
0
LINE
8
Edge.Cuts
62
2
10
131.0
20
-119.55
11
124.7
21
-119.55
0
LINE
8
Edge.Cuts
62
2
10
60.15
20
-162.7
11
71.45
21
-162.7
0
LINE
8
Edge.Cuts
62
2
10
207.65
20
-108.45
11
179.65
21
-108.45
0
LINE
8
Edge.Cuts
62
2
10
122.3
20
-155.9
11
124.3
21
-155.9
0
LINE
8
Edge.Cuts
62
2
10
152.7
20
-138.15
11
152.7
21
-136.15
0
LINE
8
Edge.Cuts
62
2
10
109.45
20
-153.3
11
110.75
21
-153.3
0
LINE
8
Edge.Cuts
62
2
10
152.7
20
-119.55
11
152.7
21
-117.55
0
LINE
8
Edge.Cuts
62
2
10
190.7
20
-117.55
11
176.7
21
-117.55
0
LINE
8
Edge.Cuts
62
2
10
109.0
20
-130.9
11
109.0
21
-130.5
0
LINE
8
Edge.Cuts
62
2
10
124.7
20
-138.15
11
152.7
21
-138.15
0
LINE
8
Edge.Cuts
62
2
10
97.7
20
-123.3
11
97.7
21
-121.3
0
LINE
8
Edge.Cuts
62
2
10
155.65
20
-110.45
11
155.65
21
-108.45
0
LINE
8
Edge.Cuts
62
2
10
31.7
20
-123.3
11
31.7
21
-126.6
0
LINE
8
Edge.Cuts
62
2
10
132.0
20
-146.8
11
130.6
21
-146.8
0
LINE
8
Edge.Cuts
62
2
10
203.3
20
-128.55
11
204.7
21
-128.55
0
LINE
8
Edge.Cuts
62
2
10
39.8
20
-126.0
11
39.8
21
-124.7
0
LINE
8
Edge.Cuts
62
2
10
204.3
20
-150.2
11
204.3
21
-145.9
0
LINE
8
Edge.Cuts
62
2
10
83.7
20
-121.3
11
83.7
21
-123.3
0
LINE
8
Edge.Cuts
62
2
10
47.65
20
-110.45
11
47.65
21
-112.45
0
LINE
8
Edge.Cuts
62
2
10
68.7
20
-133.8
11
74.7
21
-133.8
0
LINE
8
Edge.Cuts
62
2
10
39.4
20
-126.0
11
39.4
21
-127.5
0
LINE
8
Edge.Cuts
62
2
10
202.9
20
-149.8
11
202.9
21
-150.2
0
CIRCLE
8
Edge.Cuts
62
2
10
31.22
20
-154.4
40
0.65
0
LINE
8
Edge.Cuts
62
2
10
152.3
20
-142.6
11
152.3
21
-140.6
0
LINE
8
Edge.Cuts
62
2
10
109.45
20
-153.7
11
109.45
21
-153.3
0
LINE
8
Edge.Cuts
62
2
10
200.1
20
-151.6
11
200.1
21
-150.2
0
LINE
8
Edge.Cuts
62
2
10
164.0
20
-133.45
11
164.0
21
-131.95
0
LINE
8
Edge.Cuts
62
2
10
39.4
20
-127.5
11
38.0
21
-127.5
0
LINE
8
Edge.Cuts
62
2
10
209.65
20
-80.45
11
207.65
21
-80.45
0
ARC
8
Edge.Cuts
62
2
10
74.7
20
-132.05
30
0
40
1.75
50
270.0
51
90.0
0
LINE
8
Edge.Cuts
62
2
10
71.45
20
-160.0
11
71.05
21
-160.0
0
LINE
8
Edge.Cuts
62
2
10
190.3
20
-142.6
11
206.3
21
-142.6
0
LINE
8
Edge.Cuts
62
2
10
72.85
20
-160.0
11
72.85
21
-158.5
0
LINE
8
Edge.Cuts
62
2
10
113.65
20
-96.45
11
115.65
21
-96.45
0
LINE
8
Edge.Cuts
62
2
10
165.8
20
-133.45
11
165.8
21
-134.75
0
LINE
8
Edge.Cuts
62
2
10
31.65
20
-96.45
11
33.65
21
-96.45
0
LINE
8
Edge.Cuts
62
2
10
201.6
20
-150.2
11
201.6
21
-149.8
0
LINE
8
Edge.Cuts
62
2
10
113.65
20
-58.45
11
113.65
21
-44.45
0
LINE
8
Edge.Cuts
62
2
10
163.6
20
-134.75
11
164.0
21
-134.75
0
LINE
8
Edge.Cuts
62
2
10
176.3
20
-159.2
11
176.3
21
-161.2
0
LINE
8
Edge.Cuts
62
2
10
124.3
20
-155.9
11
124.3
21
-161.2
0
LINE
8
Edge.Cuts
62
2
10
127.65
20
-56.45
11
127.65
21
-28.45
0
LINE
8
Edge.Cuts
62
2
10
29.7
20
-136.6
11
29.7
21
-126.6
0
LINE
8
Edge.Cuts
62
2
10
110.75
20
-153.7
11
112.15
21
-153.7
0
LINE
8
Edge.Cuts
62
2
10
47.65
20
-28.45
11
61.65
21
-28.45
0
LINE
8
Edge.Cuts
62
2
10
132.4
20
-123.75
11
131.0
21
-123.75
0
LINE
8
Edge.Cuts
62
2
10
47.65
20
-30.45
11
61.65
21
-30.45
0
LINE
8
Edge.Cuts
62
2
10
38.0
20
-126.0
11
38.0
21
-127.5
0
LINE
8
Edge.Cuts
62
2
10
125.65
20
-80.45
11
125.65
21
-56.45
0
LINE
8
Edge.Cuts
62
2
10
207.65
20
-80.45
11
207.65
21
-108.45
0
LINE
8
Edge.Cuts
62
2
10
31.7
20
-141.9
11
59.7
21
-141.9
0
LINE
8
Edge.Cuts
62
2
10
39.85
20
-150.3
11
38.45
21
-150.3
0
LINE
8
Edge.Cuts
62
2
10
59.7
20
-121.3
11
45.7
21
-121.3
0
LINE
8
Edge.Cuts
62
2
10
99.65
20
-28.45
11
99.65
21
-30.45
0
LINE
8
Edge.Cuts
62
2
10
97.7
20
-123.3
11
113.7
21
-123.3
0
ARC
8
Edge.Cuts
62
2
10
117.65
20
-114.45
30
0
40
4.0
50
270.000006
51
359.999994
0
LINE
8
Edge.Cuts
62
2
10
72.85
20
-161.3
11
72.85
21
-162.7
0
LINE
8
Edge.Cuts
62
2
10
202.9
20
-150.2
11
204.3
21
-150.2
0
LINE
8
Edge.Cuts
62
2
10
179.65
20
-28.45
11
207.65
21
-28.45
0
LINE
8
Edge.Cuts
62
2
10
202.0
20
-126.75
11
203.3
21
-126.75
0
LINE
8
Edge.Cuts
62
2
10
190.3
20
-142.6
11
190.3
21
-140.6
0
LINE
8
Edge.Cuts
62
2
10
164.0
20
-133.45
11
163.6
21
-133.45
0
LINE
8
Edge.Cuts
62
2
10
107.95
20
-155.1
11
107.95
21
-153.7
0
LINE
8
Edge.Cuts
62
2
10
209.65
20
-56.45
11
207.65
21
-56.45
0
LINE
8
Edge.Cuts
62
2
10
112.15
20
-159.4
11
114.15
21
-159.4
0
LINE
8
Edge.Cuts
62
2
10
204.7
20
-132.85
11
204.7
21
-128.55
0
LINE
8
Edge.Cuts
62
2
10
109.0
20
-132.7
11
110.3
21
-132.7
0
LINE
8
Edge.Cuts
62
2
10
73.25
20
-160.0
11
73.25
21
-161.3
0
CIRCLE
8
Edge.Cuts
62
2
10
40.65
20
-111.45
40
0.65
0
LINE
8
Edge.Cuts
62
2
10
202.9
20
-152.0
11
202.9
21
-151.6
0
LINE
8
Edge.Cuts
62
2
10
130.2
20
-144.0
11
130.6
21
-144.0
0
LINE
8
Edge.Cuts
62
2
10
127.65
20
-28.45
11
155.65
21
-28.45
0
LINE
8
Edge.Cuts
62
2
10
85.65
20
-30.45
11
99.65
21
-30.45
0
LINE
8
Edge.Cuts
62
2
10
111.7
20
-136.6
11
111.7
21
-132.3
0
LINE
8
Edge.Cuts
62
2
10
59.7
20
-123.3
11
59.7
21
-121.3
0
LINE
8
Edge.Cuts
62
2
10
109.0
20
-130.9
11
107.5
21
-130.9
0
LINE
8
Edge.Cuts
62
2
10
155.65
20
-26.45
11
179.65
21
-26.45
0
LINE
8
Edge.Cuts
62
2
10
39.4
20
-126.0
11
39.8
21
-126.0
0
LINE
8
Edge.Cuts
62
2
10
132.4
20
-145.3
11
132.4
21
-144.0
0
LINE
8
Edge.Cuts
62
2
10
85.65
20
-28.45
11
99.65
21
-28.45
0
LINE
8
Edge.Cuts
62
2
10
73.25
20
-161.3
11
72.85
21
-161.3
0
LINE
8
Edge.Cuts
62
2
10
113.65
20
-58.45
11
115.65
21
-58.45
0
LINE
8
Edge.Cuts
62
2
10
39.4
20
-124.7
11
39.4
21
-123.3
0
LINE
8
Edge.Cuts
62
2
10
152.3
20
-161.2
11
152.3
21
-159.2
0
LINE
8
Edge.Cuts
62
2
10
29.7
20
-126.6
11
31.7
21
-126.6
0
LINE
8
Edge.Cuts
62
2
10
60.15
20
-164.7
11
60.15
21
-162.7
0
LINE
8
Edge.Cuts
62
2
10
124.3
20
-161.2
11
152.3
21
-161.2
0
CIRCLE
8
Edge.Cuts
62
2
10
114.65
20
-103.45
40
0.65
0
LINE
8
Edge.Cuts
62
2
10
201.6
20
-149.8
11
202.9
21
-149.8
0
LINE
8
Edge.Cuts
62
2
10
83.7
20
-141.9
11
113.7
21
-141.9
0
LINE
8
Edge.Cuts
62
2
10
164.0
20
-134.75
11
164.0
21
-136.15
0
LINE
8
Edge.Cuts
62
2
10
83.7
20
-139.9
11
83.7
21
-141.9
0
LINE
8
Edge.Cuts
62
2
10
138.7
20
-119.55
11
132.4
21
-119.55
0
LINE
8
Edge.Cuts
62
2
10
109.45
20
-153.7
11
107.95
21
-153.7
0
LINE
8
Edge.Cuts
62
2
10
176.3
20
-161.2
11
206.3
21
-161.2
0
LINE
8
Edge.Cuts
62
2
10
29.65
20
-22.45
11
117.65
21
-22.45
0
ARC
8
Edge.Cuts
62
2
10
167.65
20
-47.45
30
0
40
3.162277
50
161.565042
51
18.434958
0
LINE
8
Edge.Cuts
62
2
10
130.2
20
-145.3
11
130.2
21
-144.0
0
CIRCLE
8
Edge.Cuts
62
2
10
123.37
20
-150.9
40
0.65
0
LINE
8
Edge.Cuts
62
2
10
132.0
20
-144.0
11
132.0
21
-142.6
0
LINE
8
Edge.Cuts
62
2
10
165.4
20
-134.75
11
165.4
21
-136.15
0
LINE
8
Edge.Cuts
62
2
10
132.0
20
-145.3
11
132.0
21
-146.8
0
LINE
8
Edge.Cuts
62
2
10
109.45
20
-155.1
11
109.45
21
-155.5
0
LINE
8
Edge.Cuts
62
2
10
32.15
20
-146.1
11
32.15
21
-149.4
0
LINE
8
Edge.Cuts
62
2
10
204.7
20
-127.15
11
204.7
21
-122.85
0
ARC
8
Edge.Cuts
62
2
10
68.7
20
-132.05
30
0
40
1.75
50
90.0
51
270.0
0
LINE
8
Edge.Cuts
62
2
10
165.4
20
-133.45
11
165.4
21
-131.95
0
LINE
8
Edge.Cuts
62
2
10
38.45
20
-146.1
11
32.15
21
-146.1
0
LINE
8
Edge.Cuts
62
2
10
155.65
20
-108.45
11
127.65
21
-108.45
0
LINE
8
Edge.Cuts
62
2
10
97.7
20
-121.3
11
83.7
21
-121.3
0
ENDSEC
0
EOF
